-------------------------------------------------------------------------------
Test set: IdeaProjects.AppTest
-------------------------------------------------------------------------------
Tests run: 7, Failures: 0, Errors: 0, Skipped: 0, Time elapsed: 0.124 s -- in IdeaProjects.AppTest
